{
  "properties": [
    {
      "name": "node.bootstrapPeerHost",
      "type": "java.lang.String",
      "description": "bootstrap peer ip address."
    },
    {
      "name": "node.bootstrapPeerPort",
      "type": "java.lang.String",
      "description": "bootstrap peer ip port."
    },
    {
      "name": "node.miningWalletId",
      "type": "java.lang.String",
      "description": "wallet id that will receive mined coins."
    }
  ] }